{
  "StellarSystemGenerator": {
    "StellarBody":{
      "SpectralClass":{
        "RollDice":"100",
        "RollType":"HighOpenEnded",
        "Result":{
          "1-75":{"Class":"M","Description":"Bright red: toward orange at the hot red (temp 0)"},
          "76-81":{"Class":"K","Description":"Orange; from yellowish (temp 0) to reddish (temp 9) "},
          "82-86":{"Class":"G","Description":"Yellow; from whitish (temp 0) to orangish (temp 9)"},
          "87-91":{"Class":"F","Description":"White from bluish (temp 0) to yellowish (temp 9)"},
          "92-95":{"Class":"A","Description":"Blue-white"},
          "96-120":{"Class":"Cluster","Description":"Roll for 1-5 random stars within significant gravitational influence of one another"},
          "121-140":{"Class":"B","Description":"Very bright blue-white"},
          "141-160":{"Class":"O","Description":"Extremely bright blue-white"},
          "161-180":{"Class":"N","Description":"Deep (temp 0) to dull (temp 9) red"},
          "181-200":{"Class":"S","Description":"Dim red"},
          "201+":{"Class":"Phenomenon","Description":"Something really rare"}
        }
      },
      "StellarType":{
        "RollDice": "10",
        "RollType": "Standard",
        "Result": {
          "1-6": {
            "Type": "V",
            "Description": "Main sequence star"
          },
          "7": {
            "Type": "IV",
            "Description": "Sub-giant"
          },
          "8": {
            "Type": "III",
            "Description": "Giant"
          },
          "9": {
            "Type": "II",
            "Description": "Bright"
          },
          "10":{
            "Type": "I",
            "Description": "Super-giant"
          }
        }
      }
    }
  }
}